Escenario: Login exitoso

Dado que el usuario con email "eve.holt@reqres.in" y password "cityslicka" desea hacer login
Cuando realiza la solicitud POST "https://reqres.in/api/login" con
{
    "email": "eve.holt@reqres.in",
    "password": "cityslicka"
}
Entonces recibe el codigo de respuesta "200" y un token de sesion
{
    "token": "QpwL5tke4Pnpja7X4"
}


Escenario: Login fallido

Dado que el usuario con email "desconocido" y password "cityslicka" desea hacer login
Cuando realiza la solicitud POST "https://reqres.in/api/login" con
{
    "email": "desconocido",
    "password": "cityslicka"
}
Entonces recibe el codigo de respuesta "400" acompañado del mensaje de error
{
    "error": "user not found"
}

Escenario: Consultar la lista de clientes

Dado que un usuario realiza login POST "https://reqres.in/api/login" con sus credenciales
{
    "email": "eve.holt@reqres.in",
    "password": "cityslicka"
}
Cuando realiza la solicitud de consulta de usuarios GET "https://reqres.in/api/users?page=1"

Entonces recibe el codigo de respuesta "200" y la lista de usuarios de la pagina 1
{
    "page": 1,
    "per_page": 6,
    "total": 12,
    "total_pages": 2,
    "data": [
        {
            "id": 1,
            "email": "george.bluth@reqres.in",
            "first_name": "George",
            "last_name": "Bluth",
            "avatar": "https://reqres.in/img/faces/1-image.jpg"
        },
        {
            "id": 2,
            "email": "janet.weaver@reqres.in",
            "first_name": "Janet",
            "last_name": "Weaver",
            "avatar": "https://reqres.in/img/faces/2-image.jpg"
        }
		.
		.
		.
    ],
    "support": {
        "url": "https://contentcaddy.io?utm_source=reqres&utm_medium=json&utm_campaign=referral",
        "text": "Tired of writing endless social media content? Let Content Caddy generate it for you."
    }
}

Escenario: Registrar un cliente

Dado que un usuario realiza login POST "https://reqres.in/api/login" con sus credenciales
{
    "email": "eve.holt@reqres.in",
    "password": "cityslicka"
}
Cuando realiza la solicitud POST "https://reqres.in/api/register" de registro de clientes con
{
    "email": "emma.wong@reqres.in",
    "password": "pistol"
}
Entonces recibe el codigo de respuesta "200" acompañado del id y token de sesion
{
    "id": 3,
    "token": "QpwL5tke4Pnpja7X3"
}
